Gene	Aqu--sci	Aqu--NVE	Aqu--Twi	Aqu--sp|	NVE--sci	NVE--Twi	NVE--sp|	Twi--sci	Twi--sp|	sci--sp|
5sponge_4953.fa.dist	31.818182	40.760870	53.333333	36.315789	52.727273	47.777778	56.521739	40.000000	43.888889	50.909091
5sponge_4691.fa.dist	62.637363	81.767956	60.317460	81.868132	62.430939	62.698413	85.082873	39.682540	57.936508	63.934426
5sponge_3825.fa.dist	48.809524	48.809524	55.952381	51.190476	45.714286	52.830189	57.142857	49.523810	50.000000	45.714286
5sponge_5185.fa.dist	30.265487	32.342657	40.672783	30.944056	36.283186	36.085627	41.176471	28.134557	34.250765	36.283186
5sponge_5269.fa.dist	47.525773	52.214212	66.426365	54.376931	50.412371	55.303811	60.041195	49.072165	57.466529	51.649485
5sponge_5249.fa.dist	57.191781	64.359862	72.413793	61.034483	58.823529	62.629758	60.553633	58.965517	65.172414	56.551724
5sponge_4502.fa.dist	28.160200	31.592040	42.105263	33.544304	34.918648	32.667877	48.860759	26.315789	34.119782	38.860759
5sponge_4212.fa.dist	33.186490	43.934911	49.852941	44.674556	40.384615	49.556213	56.656805	35.588235	49.112426	40.384615
5sponge_4257.fa.dist	51.627907	54.418605	65.116279	49.767442	54.430380	54.545455	61.224490	52.272727	49.545455	49.789030
5sponge_5471.fa.dist	29.710145	40.637450	42.481203	34.782609	35.856574	44.223108	41.035857	36.090226	37.969925	32.978723
5sponge_4591.fa.dist	44.130435	41.736227	43.906511	38.731219	44.565217	47.508306	46.345515	47.608696	42.339374	47.391304
5sponge_5460.fa.dist	37.267081	53.004292	62.367865	47.826087	43.991416	51.287554	64.806867	37.632135	49.894292	42.158859
5sponge_4882.fa.dist	31.782946	39.534884	43.410853	38.759690	37.777778	34.351145	43.609023	35.114504	30.534351	40.601504
5sponge_5000.fa.dist	44.701987	45.695364	45.173745	43.708609	40.597015	48.262548	48.076923	42.471042	45.559846	45.512821
5sponge_4446.fa.dist	38.970588	15.769231	37.867647	36.029412	41.153846	48.461538	47.692308	42.699725	42.699725	35.335689
5sponge_4927.fa.dist	52.717391	54.076087	55.978261	55.163043	52.072539	52.331606	54.145078	51.546392	49.104859	54.123711
5sponge_5135.fa.dist	39.917127	36.740331	38.484848	38.259669	30.247718	31.363636	32.724902	35.303030	33.484848	37.027379
5sponge_5476.fa.dist	50.655738	47.446458	61.449753	40.886700	47.611203	52.553542	43.492586	46.622735	43.163097	39.901478
5sponge_4746.fa.dist	27.948718	33.606557	46.464646	31.780822	36.338798	58.080808	46.027397	44.444444	46.969697	31.780822
5sponge_4812.fa.dist	60.259740	63.322884	73.246753	64.155844	61.128527	64.890282	66.457680	62.694301	65.714286	61.298701
5sponge_4602.fa.dist	36.902050	38.657407	40.060241	33.712984	38.194444	38.554217	33.564815	34.638554	34.337349	34.125270
5sponge_5247.fa.dist	56.886228	53.508772	69.253731	64.652568	52.631579	60.087719	67.982456	60.179641	68.277946	62.537764
5sponge_4279.fa.dist	35.416667	32.142857	47.619048	33.928571	39.603960	40.594059	49.504950	37.424547	37.394958	35.714286
5sponge_5039.fa.dist	33.547009	39.178082	59.740260	48.088531	24.383562	39.178082	43.835616	37.662338	57.922078	34.829060
5sponge_4184.fa.dist	34.703196	37.777778	43.607306	38.750000	32.592593	40.370370	30.370370	34.460888	38.437500	36.562500
5sponge_5140.fa.dist	44.201313	45.733042	48.140044	46.608315	46.530612	51.632653	53.877551	43.639922	44.927536	43.248532
5sponge_5502.fa.dist	69.645690	74.447514	80.558428	70.630817	72.928177	75.621547	77.140884	71.443681	72.588832	67.794818
5sponge_4287.fa.dist	31.836735	48.367347	51.700680	46.734694	42.708333	47.619048	52.827381	39.002268	44.671202	38.995569
5sponge_4995.fa.dist	76.923077	80.384615	84.615385	80.769231	82.692308	80.000000	82.307692	78.461538	80.000000	77.692308
5sponge_5509.fa.dist	43.789474	46.288210	52.980132	44.000000	50.873362	51.876380	59.825328	50.772627	52.317881	52.210526
5sponge_4900.fa.dist	39.572193	43.093923	50.267380	41.711230	46.961326	41.988950	48.066298	40.206186	43.915344	41.798942
5sponge_4885.fa.dist	34.615385	46.067416	41.346154	51.136364	44.943820	51.685393	52.272727	35.714286	52.272727	42.045455
5sponge_4237.fa.dist	53.237410	58.992806	74.820144	56.834532	58.469945	52.459016	55.737705	50.531915	50.769231	52.127660
5sponge_4752.fa.dist	35.365854	31.947484	43.292683	28.171334	40.700219	35.229759	38.730853	38.370370	35.420099	34.266886
5sponge_4588.fa.dist	70.666667	70.129870	71.052632	75.000000	70.666667	75.000000	76.623377	70.000000	74.342105	72.666667
5sponge_4282.fa.dist	43.865031	51.226994	54.901961	47.852761	44.648318	55.882353	54.407295	42.156863	52.287582	38.532110
5sponge_5421.fa.dist	58.757062	55.239787	71.525424	61.120543	58.003766	61.278863	58.969805	63.465160	65.534805	64.218456
5sponge_5359.fa.dist	43.523316	50.777202	57.065217	44.559585	43.298969	56.521739	54.639175	46.195652	52.173913	39.800995
5sponge_5206.fa.dist	36.464968	55.189456	65.071770	48.874598	36.738056	56.672158	54.859967	36.044657	50.000000	37.138264
5sponge_4909.fa.dist	27.317073	36.363636	35.874439	32.870370	37.073171	49.760766	41.626794	44.390244	47.222222	32.682927
5sponge_5100.fa.dist	26.791277	37.764350	47.222222	39.577039	37.071651	37.222222	54.518072	27.222222	37.222222	38.629283
5sponge_5133.fa.dist	50.941176	57.329463	58.214286	52.000000	61.393324	55.878084	69.085631	49.404762	53.452381	59.859977
5sponge_4666.fa.dist	34.473684	31.768953	44.611529	34.866828	36.101083	35.018051	37.545126	35.789474	33.333333	35.789474
5sponge_5485.fa.dist	78.852459	79.837398	85.365854	79.186992	82.622951	79.902755	82.009724	79.016393	77.795786	81.803279
5sponge_4075.fa.dist	48.962656	53.456221	57.261411	48.547718	55.299539	57.603687	56.682028	54.545455	53.278689	54.508197
5sponge_4188.fa.dist	97.272727	98.181818	98.181818	97.272727	95.454545	96.363636	97.272727	96.363636	95.454545	96.363636
5sponge_4261.fa.dist	63.352601	71.014493	70.534905	65.940054	53.502415	70.048309	71.739130	64.739884	68.029064	65.202312
5sponge_4555.fa.dist	42.400000	43.750000	42.473118	41.600000	38.839286	44.086022	49.553571	32.258065	39.784946	40.239044
5sponge_3796.fa.dist	39.655172	43.390805	45.402299	41.954023	42.391304	46.666667	42.705570	40.760870	44.000000	44.836957
5sponge_4330.fa.dist	44.290657	42.250531	46.907216	47.923875	46.921444	44.072165	45.859873	48.453608	48.453608	46.352584
5sponge_4361.fa.dist	46.976744	44.859813	56.976744	50.000000	45.093458	44.859813	48.831776	43.181818	46.818182	44.444444
5sponge_4789.fa.dist	74.844720	67.912773	75.851393	62.578616	73.831776	72.274143	67.610063	77.639752	66.037736	67.610063
5sponge_4569.fa.dist	50.625000	53.750000	56.910569	51.875000	63.125000	62.601626	70.000000	60.162602	61.788618	63.750000
5sponge_4645.fa.dist	34.301270	40.510949	45.916515	38.294011	36.496350	44.890511	47.445255	38.750000	42.500000	36.655405
5sponge_3858.fa.dist	64.846416	67.463026	72.013652	66.894198	67.650397	69.466515	70.147560	68.243243	68.468468	66.332219
5sponge_4244.fa.dist	46.153846	43.478261	51.079137	45.323741	53.846154	44.927536	55.072464	43.076923	45.205479	52.307692
5sponge_5232.fa.dist	49.095023	46.945701	56.644295	43.665158	50.356053	50.469799	44.862665	49.664430	48.993289	42.631058
5sponge_4626.fa.dist	42.105263	38.235294	61.754386	40.433213	43.750000	41.176471	55.882353	41.754386	44.404332	48.014440
5sponge_3722.fa.dist	42.446043	44.202899	54.054054	39.285714	57.971014	52.898551	67.391304	49.640288	42.142857	51.079137
5sponge_4755.fa.dist	30.501393	35.742972	36.820084	34.401114	33.734940	38.955823	49.598394	33.054393	40.167364	34.540390
5sponge_4040.fa.dist	52.803738	52.970297	63.679245	53.846154	53.465347	60.396040	59.405941	55.188679	55.769231	50.480769
5sponge_4491.fa.dist	34.776437	35.699077	50.000000	42.228531	32.684284	40.089087	49.026426	39.643653	44.543430	40.332640
5sponge_5330.fa.dist	41.935484	50.000000	58.571429	51.200000	46.774194	46.153846	57.600000	38.709677	49.600000	42.741935
5sponge_4914.fa.dist	40.747664	39.062500	53.084112	42.056075	42.578125	45.117188	46.484375	44.669118	47.874307	42.513863
5sponge_5475.fa.dist	63.492063	65.079365	73.544974	65.079365	66.137566	71.052632	65.789474	68.783069	65.263158	64.550265
5sponge_4869.fa.dist	60.662526	59.798995	68.136273	60.721443	62.311558	63.567839	65.326633	64.182195	61.793372	61.490683
5sponge_3901.fa.dist	43.533123	34.579439	54.785479	45.150502	40.694006	39.273927	37.458194	51.815182	48.829431	49.832776
5sponge_4275.fa.dist	35.903614	41.826923	46.500000	38.461538	36.144578	46.500000	44.235294	40.250000	41.500000	36.626506
5sponge_5487.fa.dist	66.158114	67.315716	79.027778	65.229485	71.210014	71.627260	67.872045	69.444444	66.898470	67.454798
5sponge_4966.fa.dist	54.304636	57.823129	77.397260	62.162162	59.863946	62.328767	68.027211	60.958904	63.013699	62.162162
5sponge_4656.fa.dist	48.299320	53.020134	61.073826	60.402685	42.176871	52.121212	56.774194	48.299320	53.548387	45.578231
5sponge_4198.fa.dist	54.078550	63.322884	76.124567	67.092652	56.112853	62.629758	66.453674	53.287197	64.359862	57.507987
5sponge_5065.fa.dist	48.427673	50.314465	51.315789	53.741497	52.173913	51.973684	57.142857	52.631579	52.380952	60.544218
5sponge_4353.fa.dist	46.473029	47.698745	48.547718	46.443515	47.280335	44.351464	52.301255	43.153527	46.025105	40.167364
5sponge_3854.fa.dist	52.447552	57.692308	52.447552	51.048951	52.733119	50.162866	53.376206	51.465798	48.208469	51.768489
5sponge_4195.fa.dist	47.039474	48.684211	50.657895	46.381579	46.629213	54.571429	54.213483	51.142857	49.142857	44.414894
5sponge_4566.fa.dist	51.150895	57.326478	64.961637	59.640103	59.897172	59.383033	69.665810	52.685422	61.182519	59.125964
5sponge_4434.fa.dist	61.400000	73.493976	74.200000	67.600000	60.843373	72.289157	71.686747	61.730769	69.803922	60.588235
5sponge_4804.fa.dist	81.164384	83.418367	91.935484	83.645656	83.647260	85.980149	86.115843	85.111663	86.476427	84.332192
5sponge_4380.fa.dist	35.463259	29.875519	36.102236	38.977636	39.419087	26.556017	39.834025	33.035714	33.928571	35.652174
5sponge_5097.fa.dist	40.607211	48.571429	46.691176	43.486239	50.476190	41.544118	63.428571	35.661765	38.235294	48.197343
5sponge_4162.fa.dist	52.811550	51.342282	58.078292	56.727519	43.400447	48.434004	59.507830	51.215805	56.583630	56.458967
5sponge_5042.fa.dist	49.409781	56.492411	59.190556	44.856661	62.021858	60.000000	63.216958	57.377049	57.605985	56.284153
5sponge_3745.fa.dist	50.803859	50.937500	54.798762	43.007916	53.376206	54.375000	55.625000	51.446945	55.417957	50.803859
5sponge_4934.fa.dist	33.904110	35.858586	47.474747	33.670034	39.212329	35.284553	44.207317	35.102740	36.097561	39.212329
5sponge_4284.fa.dist	55.212355	58.301158	50.824176	53.024453	64.377289	53.159341	60.073260	52.335165	47.939560	57.542909
5sponge_5388.fa.dist	71.974522	75.796178	82.959641	77.707006	76.190476	81.165919	81.269841	78.923767	83.856502	77.602524
5sponge_3752.fa.dist	53.416149	50.000000	51.734104	52.567976	50.310559	53.963415	54.878049	51.552795	50.755287	51.552795
5sponge_4408.fa.dist	33.333333	35.915493	40.845070	34.415584	35.915493	42.253521	62.676056	36.734694	37.012987	34.013605
5sponge_5499.fa.dist	40.153453	34.346505	47.300771	40.203562	41.641337	39.209726	40.729483	48.329049	43.701799	39.897698
5sponge_4959.fa.dist	35.918367	38.495575	35.102041	34.693878	44.690265	47.345133	54.867257	42.682927	42.682927	42.519685
5sponge_4170.fa.dist	48.739496	47.313855	57.682620	47.439127	51.837889	55.984920	48.539114	57.731092	52.531120	49.075630
5sponge_4600.fa.dist	39.000000	42.307692	44.954128	37.254902	39.000000	38.461538	47.058824	42.000000	33.333333	37.000000
5sponge_4952.fa.dist	68.545455	69.216418	70.000000	66.546763	67.723881	68.709677	68.843284	65.483871	65.161290	64.727273
5sponge_4003.fa.dist	46.965699	48.284960	56.200528	40.129450	52.242744	58.047493	44.012945	52.506596	44.660194	41.747573
5sponge_4947.fa.dist	27.327327	34.534535	47.147147	36.336336	31.299735	32.047478	42.982456	28.783383	33.234421	35.087719
5sponge_4186.fa.dist	60.618557	75.275938	84.662577	64.016736	63.576159	77.924945	73.951435	61.649485	66.317992	57.740586
5sponge_5199.fa.dist	38.647343	54.950495	60.000000	54.106280	38.118812	61.881188	77.722772	36.097561	62.926829	30.656934
5sponge_3800.fa.dist	43.303571	44.897959	46.255507	43.497758	47.959184	48.979592	46.428571	44.642857	47.982063	49.775785
5sponge_3717.fa.dist	72.426471	74.817518	77.528090	72.992701	80.882353	79.400749	78.819444	78.277154	77.528090	79.779412
5sponge_3913.fa.dist	62.139918	74.380165	86.776860	71.369295	66.942149	76.446281	82.157676	65.702479	75.103734	66.804979
5sponge_4089.fa.dist	48.750000	54.901961	60.625000	44.559585	55.555556	58.823529	58.823529	54.375000	55.625000	50.000000
5sponge_3742.fa.dist	53.191489	52.482270	68.780488	52.777778	58.156028	51.707317	57.092199	61.951220	60.975610	52.160494
5sponge_5360.fa.dist	41.739130	55.434783	48.120301	39.516129	53.260870	55.434783	56.521739	43.478261	42.741935	41.739130
5sponge_4520.fa.dist	43.203883	51.941748	68.372093	52.216749	40.770791	58.604651	51.724138	49.302326	57.674419	44.581281
5sponge_5372.fa.dist	74.468085	72.959184	87.820513	68.877551	77.127660	79.487179	71.938776	78.846154	75.000000	75.000000
5sponge_4576.fa.dist	37.337192	51.953690	54.033771	45.875543	41.512126	56.472795	50.636492	39.024390	46.153846	37.517832
5sponge_5076.fa.dist	64.406780	61.452514	65.819209	60.335196	68.361582	69.209040	61.731844	66.666667	64.406780	62.994350
5sponge_4687.fa.dist	51.558074	50.708215	62.039660	57.223796	42.666667	41.471572	42.574257	41.973244	46.153846	42.166667
5sponge_4716.fa.dist	35.324675	31.088083	47.668394	36.528497	37.922078	35.114504	36.434109	38.701299	36.950904	41.818182
5sponge_4373.fa.dist	55.030801	56.262834	62.833676	54.004107	60.450820	58.401639	58.196721	54.417671	52.409639	52.694611
5sponge_5152.fa.dist	38.317757	36.111111	47.222222	34.579439	43.925234	35.245902	41.121495	38.317757	34.579439	42.056075
5sponge_4865.fa.dist	39.540816	30.821918	41.147132	35.969388	43.493151	38.356164	44.863014	46.173469	48.979592	45.153061
5sponge_5023.fa.dist	41.791045	41.726619	42.890995	44.743276	47.014925	42.685851	56.234719	41.044776	46.943765	47.512438
5sponge_5207.fa.dist	54.337900	59.207459	62.790698	56.103286	57.109557	62.937063	59.859155	60.465116	60.563380	57.746479
5sponge_4083.fa.dist	52.020202	53.233831	66.176471	58.793970	58.080808	59.701493	61.809045	59.595960	65.326633	56.060606
5sponge_4430.fa.dist	42.592593	50.000000	53.009259	45.601852	43.652561	49.230769	50.332594	43.429844	48.337029	41.202673
5sponge_5170.fa.dist	39.864865	52.205882	60.583942	37.313433	48.529412	56.617647	35.820896	49.635036	38.805970	36.567164
5sponge_4749.fa.dist	45.505618	59.090909	72.955975	56.179775	55.113636	54.716981	69.886364	56.603774	58.490566	52.808989
5sponge_4636.fa.dist	39.718310	39.589443	45.103858	38.135593	44.574780	40.801187	44.721408	38.427300	37.091988	39.689266
5sponge_3738.fa.dist	47.446237	52.895753	55.727156	56.373938	45.564516	46.603774	64.589235	47.715054	60.764873	52.549575
5sponge_3952.fa.dist	28.550725	29.434698	41.955836	34.268833	32.358674	29.629630	52.241715	31.703470	43.059937	38.109306
5sponge_4979.fa.dist	65.983607	71.020408	74.476987	62.650602	74.590164	75.313808	76.326531	70.292887	71.548117	71.311475
5sponge_4990.fa.dist	43.859649	43.859649	42.982456	46.052632	52.208835	58.536585	56.224900	53.252033	58.943089	55.776892
5sponge_5054.fa.dist	41.279070	44.767442	47.023810	45.930233	47.252747	44.642857	51.396648	42.261905	47.023810	43.016760
5sponge_5203.fa.dist	39.768340	45.945946	53.667954	49.420849	46.538462	54.615385	55.769231	41.196013	48.453608	41.924399
5sponge_5333.fa.dist	52.407932	53.428571	61.189802	53.824363	53.142857	55.714286	54.285714	49.589041	53.929539	51.506849
5sponge_4584.fa.dist	56.818182	28.030303	62.121212	54.545455	68.874172	69.536424	74.834437	63.636364	60.165975	58.441558
5sponge_5061.fa.dist	34.960630	36.938776	46.445498	37.952756	38.979592	35.102041	53.265306	37.282780	36.966825	49.923896
5sponge_5264.fa.dist	47.540984	46.564885	48.091603	45.801527	47.540984	39.860140	45.945946	46.721311	46.153846	49.180328
5sponge_3775.fa.dist	53.666667	50.333333	53.666667	53.333333	56.065574	44.262295	57.049180	48.264984	43.034056	54.258675
5sponge_4047.fa.dist	37.229437	46.908316	46.218487	36.065574	46.320346	53.944563	47.761194	45.454545	42.647059	37.878788
5sponge_5428.fa.dist	48.346457	56.220472	59.651899	57.322835	51.393189	58.386076	58.049536	54.746835	58.544304	50.759878
5sponge_5104.fa.dist	74.803150	85.039370	80.314961	76.377953	74.218750	82.031250	76.562500	74.615385	76.562500	75.000000
5sponge_4315.fa.dist	48.333333	45.081967	51.162791	44.322344	51.666667	55.327869	52.459016	52.500000	49.224806	47.500000
5sponge_4644.fa.dist	26.397146	32.585949	37.622549	28.912784	34.529148	36.621824	44.394619	30.882353	38.235294	32.377539
5sponge_4207.fa.dist	40.883978	44.751381	48.125000	43.093923	51.351351	47.500000	54.054054	40.625000	42.500000	51.308901
5sponge_5029.fa.dist	33.333333	44.897959	51.700680	45.774648	30.177515	46.710526	48.591549	37.500000	47.183099	42.253521
5sponge_5143.fa.dist	43.636364	38.181818	39.090909	49.090909	45.283019	49.056604	56.603774	42.138365	50.314465	49.056604
5sponge_5344.fa.dist	41.847826	40.104167	52.631579	40.625000	50.000000	42.105263	52.307692	36.956522	38.947368	48.913043
5sponge_3958.fa.dist	40.606061	50.691244	55.948553	47.452229	50.691244	48.847926	54.838710	45.659164	50.160772	43.630573
5sponge_5366.fa.dist	46.012270	48.790323	52.409639	45.249597	53.374233	53.024194	51.209677	51.329243	45.381526	50.102249
5sponge_5105.fa.dist	50.000000	58.000000	62.666667	40.666667	64.102564	52.247191	49.019608	55.128205	49.019608	51.633987
5sponge_4486.fa.dist	41.749503	42.147117	52.286282	43.339960	53.236246	52.265372	51.941748	53.473344	52.342488	48.757764
5sponge_4632.fa.dist	51.052632	62.433862	64.021164	54.687500	60.846561	60.317460	66.666667	55.026455	52.380952	57.894737
5sponge_4931.fa.dist	58.240397	62.241169	65.293383	59.074300	64.436183	66.666667	68.453106	64.794007	65.667915	63.816605
5sponge_4732.fa.dist	68.312757	68.404908	78.198567	73.353909	67.695473	71.136131	72.633745	70.781893	77.057613	72.016461
5sponge_5078.fa.dist	42.961165	47.989950	52.345679	49.242424	46.984925	51.005025	55.808081	44.197531	50.757576	43.686869
5sponge_5151.fa.dist	46.902655	50.000000	58.447489	46.222222	57.075472	54.245283	55.660377	50.684932	53.424658	52.000000
5sponge_4424.fa.dist	44.933921	51.408451	59.706960	49.199085	57.511737	66.300366	66.431925	57.142857	64.835165	54.691076
5sponge_3966.fa.dist	35.122598	43.315858	44.585987	42.529489	38.038436	44.267516	48.470012	38.216561	42.250531	36.116634
5sponge_3749.fa.dist	39.509954	37.212864	56.202144	35.068913	54.351145	37.404580	51.908397	38.680660	32.267884	47.640791
5sponge_5183.fa.dist	54.609929	48.049645	58.156028	51.865009	45.979021	44.905009	51.332149	46.678322	49.200710	52.397869
5sponge_5371.fa.dist	59.395973	56.230032	60.457516	50.159744	60.067114	62.745098	56.466877	59.060403	55.228758	53.691275
5sponge_4515.fa.dist	54.580897	58.426966	64.849624	56.716418	55.750487	57.894737	61.797753	56.920078	56.954887	55.945419
5sponge_4629.fa.dist	53.886010	59.067358	59.067358	52.331606	59.183673	60.714286	58.163265	56.281407	59.296482	56.783920
5sponge_5510.fa.dist	46.198830	47.563353	47.549020	48.732943	47.407407	45.833333	50.925926	47.549020	46.078431	51.183971
5sponge_3933.fa.dist	40.890688	33.783784	54.655870	45.528455	32.882883	38.288288	37.837838	42.168675	45.934959	41.463415
5sponge_4624.fa.dist	54.945055	50.000000	65.384615	51.648352	50.000000	48.876404	57.303371	52.450980	48.529412	45.933014
5sponge_4542.fa.dist	53.818182	57.454545	62.545455	60.000000	64.539007	60.283688	64.893617	56.097561	61.052632	58.245614
5sponge_3779.fa.dist	42.458101	58.928571	49.811321	44.878957	56.071429	61.785714	62.500000	45.283019	46.226415	41.078067
5sponge_3974.fa.dist	44.094488	46.774194	48.550725	43.548387	47.580645	51.612903	65.322581	47.244094	46.774194	46.774194
5sponge_5391.fa.dist	68.529412	58.883249	68.157895	44.540230	69.117647	62.105263	41.091954	72.647059	44.827586	44.411765
5sponge_4478.fa.dist	68.103448	67.123288	76.422764	79.464286	61.643836	71.232877	72.602740	70.689655	85.714286	75.000000
5sponge_4533.fa.dist	37.341772	49.006623	58.940397	48.795181	42.384106	64.238411	52.980132	47.019868	57.615894	40.506329
5sponge_3979.fa.dist	55.612245	53.500000	68.122271	65.638767	45.918367	56.000000	57.500000	57.142857	64.757709	57.142857
5sponge_4346.fa.dist	47.350993	48.437500	60.937500	51.273885	55.298013	49.074074	64.331210	51.655629	53.503185	58.940397
5sponge_4312.fa.dist	37.267081	43.494898	51.453856	37.801932	46.045918	45.918367	47.321429	40.328698	40.581542	40.621118
5sponge_5110.fa.dist	62.116041	68.858131	74.553571	61.855670	66.089965	75.000000	63.321799	66.071429	66.517857	59.793814
5sponge_4537.fa.dist	56.284658	62.885572	62.523191	56.839187	70.447761	59.369202	74.328358	57.884972	61.038961	62.533215
5sponge_4415.fa.dist	60.847880	63.092269	62.878788	61.097257	64.377682	73.484848	65.879828	68.686869	71.212121	63.304721
5sponge_3971.fa.dist	47.191011	69.117647	75.294118	66.666667	63.235294	72.058824	82.352941	60.000000	65.476190	54.761905
5sponge_3846.fa.dist	54.177898	56.334232	66.576819	56.334232	52.173913	55.226824	55.662188	51.345756	56.804734	50.310559
5sponge_4567.fa.dist	30.904523	47.482993	56.839309	43.832021	32.663317	53.469388	48.571429	35.175879	49.136786	31.407035
5sponge_4455.fa.dist	60.540541	59.836066	66.129032	62.330623	64.754098	60.655738	63.387978	64.594595	63.956640	65.582656
5sponge_4132.fa.dist	61.212121	47.787611	70.731707	57.668712	47.787611	51.327434	57.522124	61.585366	63.190184	56.441718
5sponge_3895.fa.dist	43.652561	37.538462	55.128205	42.241379	42.769231	40.923077	41.230769	45.879733	43.103448	46.770601
5sponge_4956.fa.dist	38.620690	38.620690	46.853147	46.206897	38.356164	41.958042	46.979866	44.755245	48.251748	43.150685
5sponge_3837.fa.dist	43.902439	45.934959	55.284553	44.715447	47.560976	52.439024	52.845528	47.200000	46.800000	52.569170
5sponge_5413.fa.dist	58.547009	57.805907	63.829787	58.227848	58.547009	54.893617	53.688525	57.692308	57.446809	56.410256
5sponge_5130.fa.dist	47.651007	46.308725	61.073826	42.465753	45.333333	44.370861	45.205479	50.666667	43.150685	47.945205
5sponge_5004.fa.dist	42.666667	48.571429	48.533333	43.466667	42.539683	48.571429	52.063492	35.264484	38.035264	32.518337
5sponge_5239.fa.dist	63.322884	69.969040	76.708075	66.975309	63.636364	66.459627	68.111455	62.695925	65.838509	63.009404
5sponge_3987.fa.dist	51.973684	49.833887	59.800664	50.505051	55.263158	58.415842	59.259259	55.921053	55.218855	53.289474
5sponge_3909.fa.dist	66.568047	67.554241	74.358974	66.666667	62.087422	65.156507	64.667214	65.655665	62.355848	63.425513
5sponge_4031.fa.dist	38.095238	39.047619	52.873563	38.383838	38.596491	48.275862	60.606061	48.275862	45.977011	44.444444
5sponge_3932.fa.dist	33.333333	43.809524	47.619048	39.047619	49.549550	52.542373	50.847458	45.045045	50.000000	47.747748
5sponge_3968.fa.dist	44.915254	65.829146	75.000000	61.802575	40.201005	72.361809	67.336683	47.257384	62.231760	42.489270
5sponge_4011.fa.dist	63.926941	61.711712	75.113122	60.810811	64.840183	61.538462	63.392857	65.296804	60.180995	63.926941
5sponge_3761.fa.dist	61.214953	70.232558	75.000000	59.722222	62.616822	67.906977	58.604651	62.149533	57.407407	55.140187
5sponge_4167.fa.dist	44.414894	48.138298	58.244681	46.675532	46.674584	49.406176	50.122850	42.315789	47.051597	42.874693
5sponge_5109.fa.dist	58.928571	59.594986	65.217391	60.481366	58.823529	62.295082	62.680810	59.396752	61.878882	60.481366
5sponge_5084.fa.dist	39.855072	42.028986	49.275362	46.715328	41.666667	56.250000	57.664234	42.236025	55.474453	55.474453
5sponge_4164.fa.dist	57.478632	61.324786	64.102564	57.905983	61.030928	68.076110	66.947368	62.579281	63.636364	60.210526
5sponge_4810.fa.dist	35.436893	35.922330	36.650485	33.737864	40.401786	42.350333	40.354767	37.276786	35.800000	39.285714
5sponge_5454.fa.dist	31.884058	44.927536	56.521739	39.130435	36.428571	42.068966	34.482759	35.714286	32.666667	29.285714
5sponge_5356.fa.dist	37.777778	37.919463	45.805369	34.731544	44.615385	39.046200	41.984733	40.341880	38.625954	40.683761
5sponge_4189.fa.dist	54.083485	57.168784	59.346642	54.990926	59.639640	60.360360	60.720721	59.099099	58.707361	55.675676
5sponge_4126.fa.dist	68.109339	69.020501	69.454545	74.487472	68.109339	66.545455	83.599089	68.727273	71.272727	71.557562
5sponge_5472.fa.dist	53.181818	55.072464	67.111111	53.846154	67.632850	57.971014	68.115942	59.545455	57.013575	62.727273
5sponge_5031.fa.dist	64.569961	64.184852	74.326059	69.448010	64.540816	66.837388	67.051282	67.733675	71.153846	67.435897
5sponge_4534.fa.dist	61.298077	66.267943	62.980769	65.155131	65.625000	64.423077	68.421053	62.500000	64.903846	67.788462
5sponge_4209.fa.dist	67.832168	70.601852	76.523702	68.764045	69.230769	70.833333	71.064815	67.599068	67.268623	66.433566
5sponge_5276.fa.dist	48.571429	57.345972	64.285714	49.532710	54.761905	57.142857	52.132701	50.476190	47.142857	47.142857
5sponge_5392.fa.dist	33.826638	32.908705	39.065817	33.403805	40.764331	39.065817	44.373673	40.339703	40.339703	39.004149
5sponge_3986.fa.dist	45.714286	52.164502	54.786151	43.960396	45.021645	48.051948	45.887446	45.918367	44.399185	46.938776
5sponge_5043.fa.dist	54.278075	65.240642	67.112299	63.368984	57.559682	63.200000	68.700265	52.000000	60.800000	53.684211
5sponge_5431.fa.dist	38.661710	41.211226	46.829268	33.579882	38.475836	46.178862	37.573964	41.078067	36.910569	34.758364
5sponge_5438.fa.dist	33.965517	44.565217	49.358974	36.157337	36.413043	38.782051	62.500000	35.576923	40.384615	38.620690
5sponge_5464.fa.dist	66.742081	78.920308	70.897155	70.678337	70.694087	75.064267	77.892031	66.289593	68.271335	67.647059
5sponge_3972.fa.dist	47.711268	53.249097	56.360424	50.185874	54.332130	57.400722	57.063197	50.706714	55.204461	50.371747
5sponge_4700.fa.dist	53.066038	54.245283	57.632399	55.188679	56.410256	63.862928	55.981941	62.928349	62.928349	57.808858
5sponge_4639.fa.dist	41.685144	49.223947	54.323725	46.563193	44.298246	50.438596	60.526316	40.764331	50.219298	42.543860
5sponge_5026.fa.dist	53.571429	59.420290	76.811594	55.714286	61.594203	60.869565	79.710145	55.797101	57.246377	61.971831
5sponge_4679.fa.dist	53.767123	54.952077	55.910543	53.559322	60.273973	56.097561	64.067797	59.246575	59.661017	57.876712
5sponge_5219.fa.dist	50.961538	39.906103	45.789474	46.855346	51.602564	42.105263	44.339623	48.397436	43.396226	49.679487
5sponge_5193.fa.dist	58.227848	76.250000	67.932489	58.649789	79.375000	79.375000	85.625000	61.157025	62.698413	59.917355
5sponge_4841.fa.dist	43.809524	44.009780	42.798354	40.238095	39.364303	37.860082	43.276284	42.386831	37.037037	36.210526
5sponge_3871.fa.dist	47.916667	61.805556	64.930556	53.310105	47.826087	57.525084	55.400697	46.254072	54.703833	47.038328
5sponge_5470.fa.dist	49.750250	56.654676	66.721582	56.384892	53.646354	62.273476	64.298246	53.871499	61.614498	53.246753
5sponge_3977.fa.dist	84.105960	89.130435	91.390728	84.768212	95.652174	93.478261	95.652174	86.092715	85.430464	89.403974
5sponge_4848.fa.dist	70.125224	73.211009	82.451923	74.033149	70.275229	74.519231	79.558011	76.923077	76.442308	71.086556
5sponge_4256.fa.dist	52.868852	54.489796	63.272727	53.319920	54.918033	62.545455	60.204082	60.000000	61.090909	53.278689
5sponge_4006.fa.dist	36.029412	42.193309	49.904398	33.648393	39.776952	44.168260	40.264650	39.388145	34.990440	34.593573
5sponge_4468.fa.dist	35.416667	48.128342	62.365591	45.698925	36.898396	53.225806	50.537634	35.483871	49.462366	34.408602
5sponge_4660.fa.dist	54.152824	57.189542	63.815789	48.148148	56.810631	58.552632	46.801347	57.807309	45.791246	50.168350
5sponge_4697.fa.dist	31.970260	37.174721	46.853147	36.802974	50.364964	38.461538	55.474453	34.265734	34.965035	48.000000
5sponge_4482.fa.dist	76.190476	78.507463	79.761905	73.731343	80.895522	80.000000	79.402985	79.166667	74.925373	79.104478
5sponge_3947.fa.dist	52.994792	50.547445	71.484375	65.755208	44.708029	50.182482	61.678832	48.195876	65.850515	50.128866
5sponge_4483.fa.dist	50.535714	48.958333	60.249554	47.719298	64.821429	54.723708	64.210526	56.607143	54.545455	63.571429
5sponge_4730.fa.dist	46.478873	48.648649	61.971831	54.225352	38.918919	53.513514	54.594595	46.712803	55.136986	46.366782
5sponge_3994.fa.dist	44.050633	40.811456	47.906977	44.141689	46.835443	38.139535	47.138965	39.069767	36.279070	40.599455
5sponge_4514.fa.dist	23.943662	32.846715	40.000000	35.036496	36.496350	50.666667	43.065693	30.666667	45.333333	37.226277
5sponge_4474.fa.dist	64.589235	71.794872	74.440299	66.634799	71.282051	71.384615	75.897436	64.305949	66.921606	66.252390
5sponge_4215.fa.dist	45.234493	49.921260	59.418070	50.645161	49.606299	55.905512	55.000000	49.770291	57.419355	50.645161
5sponge_4968.fa.dist	55.465587	69.512195	74.796748	69.918699	62.195122	73.577236	84.146341	62.601626	72.357724	61.382114
5sponge_5327.fa.dist	68.292683	75.480769	77.033493	67.788462	66.341463	76.923077	73.076923	67.317073	67.788462	65.853659
5sponge_5235.fa.dist	37.805907	47.004219	48.783784	45.738397	45.431685	62.432432	66.471081	48.513514	59.054054	39.381271
5sponge_4267.fa.dist	56.551724	55.670103	61.855670	60.344828	56.206897	58.843537	60.689655	60.000000	59.655172	55.517241
5sponge_4886.fa.dist	52.804378	53.015428	66.757866	55.266758	52.454418	59.326788	56.802244	57.259159	57.123474	50.258398
5sponge_4194.fa.dist	50.872093	56.329114	59.883721	50.581395	54.430380	59.493671	57.278481	62.004175	60.960334	60.083160
5sponge_4490.fa.dist	54.183267	52.032520	57.364341	46.975089	58.943089	58.943089	54.878049	57.768924	53.488372	52.589641
5sponge_4772.fa.dist	30.949445	33.063209	50.062422	36.991369	38.249595	34.683955	48.784441	34.956305	39.076155	41.553637
5sponge_4472.fa.dist	43.988270	49.062500	53.958944	48.680352	52.500000	51.875000	53.437500	44.897959	52.046784	49.707602
5sponge_5260.fa.dist	37.215190	33.243243	50.632911	35.696203	39.189189	38.108108	47.837838	38.442211	36.934673	37.438424
5sponge_4943.fa.dist	42.262540	44.009217	52.516411	35.448578	49.193548	39.824945	38.594470	42.669584	34.573304	39.824945
5sponge_3754.fa.dist	39.820359	44.794953	57.185629	44.047619	34.069401	48.264984	46.687697	41.916168	46.407186	39.820359
5sponge_5210.fa.dist	39.293598	39.644970	49.889625	45.695364	55.917160	44.082840	61.834320	40.582524	46.558704	51.619433
5sponge_5175.fa.dist	37.423313	50.797546	58.156028	42.331288	38.800490	46.099291	52.264382	35.697400	36.406619	35.158151
5sponge_3847.fa.dist	64.727273	67.636364	70.181818	61.818182	57.471264	60.270270	57.837838	56.609195	54.330709	55.172414
5sponge_5309.fa.dist	40.562249	51.004016	59.036145	50.602410	44.656489	51.145038	55.343511	45.454545	46.212121	48.484848
5sponge_4540.fa.dist	62.704918	70.769231	77.946768	67.054264	66.393443	74.230769	77.519380	62.295082	66.279070	62.704918
5sponge_3782.fa.dist	30.538922	38.990826	39.824945	34.331337	32.339450	38.073394	50.688073	35.667396	38.730853	30.935252
5sponge_3936.fa.dist	41.991342	40.692641	55.411255	36.363636	33.196721	40.740741	37.815126	41.563786	37.815126	38.655462
5sponge_4539.fa.dist	53.237410	59.493671	62.878788	51.412429	44.303797	53.164557	58.227848	56.060606	64.393939	50.359712
5sponge_4939.fa.dist	62.949640	65.714286	70.357143	57.500000	61.870504	66.548043	57.295374	63.309353	56.583630	55.035971
5sponge_4498.fa.dist	51.401869	51.818182	56.756757	55.045872	67.289720	52.727273	73.394495	51.401869	51.376147	60.747664
5sponge_5416.fa.dist	50.886525	59.086879	70.752831	51.507092	51.861586	65.689540	60.665791	64.423718	64.223851	52.799650
5sponge_4724.fa.dist	48.458150	55.875831	60.792952	55.506608	50.997783	55.654102	61.862528	48.017621	55.066079	53.289474
5sponge_5465.fa.dist	45.045045	47.747748	51.351351	37.837838	45.833333	50.000000	41.666667	44.776119	39.669421	35.537190
5sponge_5407.fa.dist	47.411444	46.049046	55.585831	49.863760	43.569554	47.570332	46.750000	51.968504	51.150895	47.244094
5sponge_5480.fa.dist	40.327869	45.759717	55.721393	41.147541	46.996466	36.567164	46.643110	34.577114	36.069652	41.680129
5sponge_4642.fa.dist	28.417819	42.411642	42.684766	40.212443	40.956341	54.469854	64.241164	31.490015	46.889226	34.101382
5sponge_4564.fa.dist	51.677852	54.644809	59.136213	43.853821	59.016393	56.830601	56.830601	53.355705	50.000000	46.308725
5sponge_3852.fa.dist	38.884045	41.150828	52.272727	32.258065	39.640411	57.727273	47.363872	53.484848	56.363636	40.881590
5sponge_5138.fa.dist	36.950904	39.436620	53.746770	40.310078	44.131455	43.192488	46.009390	38.422392	38.167939	33.492823
5sponge_5406.fa.dist	43.111992	51.198466	65.346535	48.424069	46.878097	57.425743	54.362416	51.683168	52.475248	43.211100
5sponge_4592.fa.dist	31.854839	38.306452	41.935484	37.096774	41.573034	49.438202	44.943820	43.631436	42.187500	36.585366
5sponge_4203.fa.dist	52.005731	44.894027	55.503513	51.146132	50.481696	46.838407	55.876686	45.667447	46.604215	51.373626
5sponge_5384.fa.dist	48.795181	55.489022	57.661290	43.232323	44.578313	60.282258	38.989899	47.983871	36.767677	42.020202
5sponge_5073.fa.dist	25.581395	28.865979	39.534884	25.984252	29.896907	36.082474	35.051546	35.460993	25.196850	25.984252
5sponge_4294.fa.dist	57.633588	61.216730	63.533835	59.774436	67.175573	69.961977	66.920152	67.175573	63.909774	64.503817
5sponge_4422.fa.dist	63.687151	65.363128	62.711864	48.633880	66.480447	63.276836	53.631285	61.581921	54.237288	55.865922
5sponge_4055.fa.dist	51.871192	49.750250	61.055276	48.986784	52.947053	50.376884	51.048951	60.552764	57.663317	49.779736
5sponge_4668.fa.dist	46.137787	51.600000	60.000000	49.800000	49.269311	61.876248	63.872255	50.939457	58.415842	48.225470
5sponge_4234.fa.dist	29.411765	42.857143	45.033113	35.467980	51.984127	57.539683	46.825397	50.331126	42.384106	35.467980
5sponge_5345.fa.dist	47.135843	42.553191	52.045827	48.281506	43.585781	40.803709	49.613601	45.814307	47.640791	45.857988
5sponge_5288.fa.dist	53.811659	63.738739	70.299728	58.849558	56.756757	67.574932	66.441441	60.490463	63.215259	56.726457
5sponge_5297.fa.dist	39.460784	44.730392	52.696078	42.769608	43.329253	48.347613	51.774786	40.243902	44.688645	41.636142
5sponge_4291.fa.dist	31.412786	31.520000	43.567482	31.290850	32.800000	33.680000	35.620915	31.644583	32.843137	37.581699
5sponge_5314.fa.dist	33.908046	52.369668	47.761194	38.619403	42.180095	52.369668	48.341232	36.590038	40.721649	36.781609
5sponge_5016.fa.dist	34.523810	33.333333	46.000000	51.282051	25.806452	34.000000	35.897436	40.000000	54.000000	38.461538
5sponge_4974.fa.dist	54.545455	60.924370	62.500000	52.777778	62.605042	67.647059	68.067227	59.090909	56.666667	59.943182
5sponge_5420.fa.dist	32.416953	31.872946	46.881288	33.372365	49.140893	40.040241	49.531616	36.820926	39.034205	44.964871
5sponge_4536.fa.dist	46.436285	47.840532	63.208556	42.151482	45.293466	50.055371	35.880399	49.352052	44.456641	41.712404
5sponge_3885.fa.dist	40.509915	33.955224	54.674221	35.410765	38.059701	36.567164	41.044776	39.066339	36.117936	33.839479
5sponge_4071.fa.dist	63.586957	63.736264	65.582656	63.788301	66.483516	63.186813	69.359331	61.141304	62.674095	65.459610
5sponge_4713.fa.dist	39.037433	42.948718	51.308901	35.820896	42.948718	40.384615	39.743590	34.759358	32.984293	37.967914
5sponge_4851.fa.dist	48.358209	51.641791	68.358209	53.134328	52.678571	52.083333	68.750000	45.698925	52.873563	49.712644
5sponge_5086.fa.dist	50.326797	56.585366	59.803922	53.170732	54.248366	65.686275	59.024390	56.862745	60.294118	50.980392
5sponge_5136.fa.dist	40.885685	48.988764	59.761550	52.046170	41.573034	43.070045	64.494382	41.877794	53.651267	44.700944
5sponge_4233.fa.dist	53.497942	54.393305	58.024691	54.008439	63.179916	57.740586	62.869198	55.918367	55.274262	57.805907
5sponge_5352.fa.dist	44.444444	38.738739	53.982301	40.707965	40.990991	43.243243	39.639640	49.777778	44.782609	42.222222
5sponge_4088.fa.dist	60.000000	55.666667	56.739812	56.140351	58.596491	50.000000	58.245614	52.982456	49.122807	54.035088
5sponge_4774.fa.dist	83.908046	83.908046	89.655172	83.908046	84.563758	81.879195	82.068966	79.865772	81.379310	79.310345
5sponge_3741.fa.dist	32.258065	54.301075	59.677419	61.290323	49.321267	54.740061	56.880734	50.226244	54.103343	45.248869
5sponge_5284.fa.dist	33.707865	34.463277	43.783784	37.234043	38.983051	35.593220	48.587571	35.393258	37.297297	44.943820
5sponge_4268.fa.dist	80.550098	83.366337	85.658153	82.574257	84.356436	83.960396	86.336634	81.481481	82.772277	82.970297
5sponge_4027.fa.dist	39.419087	44.672131	52.164948	43.852459	43.568465	47.010309	46.926230	41.078838	44.329897	41.908714
5sponge_4762.fa.dist	35.042735	38.709677	63.333333	47.457627	41.935484	46.236559	58.064516	41.025641	48.305085	39.316239
5sponge_4640.fa.dist	29.411765	32.941176	51.470588	32.972973	35.882353	37.058824	39.411765	40.106952	33.513514	27.567568
5sponge_4100.fa.dist	33.747780	38.664323	51.056338	40.597540	36.589698	41.197183	50.085763	34.458259	42.077465	37.833037
5sponge_4669.fa.dist	57.894737	52.631579	67.836257	43.859649	52.763819	52.763819	45.500000	58.793970	46.733668	46.231156
5sponge_4129.fa.dist	49.879518	48.243560	62.529274	48.009368	51.807229	49.890110	50.927835	52.289157	49.890110	48.433735
5sponge_4213.fa.dist	24.778761	46.575342	57.037037	42.256637	38.082192	51.111111	51.232877	32.962963	44.444444	26.078029
5sponge_5427.fa.dist	58.264463	54.909820	60.320641	58.620690	62.603306	59.118236	64.097363	63.223140	63.691684	64.876033
5sponge_3875.fa.dist	50.541516	62.454874	57.039711	55.234657	59.687500	63.437500	63.125000	54.081633	53.877551	54.361055
5sponge_4023.fa.dist	79.166667	80.555556	84.027778	79.861111	88.888889	86.111111	85.416667	84.027778	87.500000	82.638889
5sponge_4744.fa.dist	34.226190	40.873016	41.815681	38.194444	38.069217	44.704264	47.654784	35.625860	41.815681	34.803002
5sponge_3942.fa.dist	72.029250	75.364964	78.467153	71.532847	73.491773	77.436823	73.741007	72.029250	74.187726	71.297989
5sponge_4776.fa.dist	40.000000	41.379310	53.500000	47.000000	51.724138	56.321839	58.620690	46.948357	58.823529	49.509804
5sponge_4582.fa.dist	36.666667	39.770115	48.663102	31.264368	46.428571	44.652406	42.207792	41.711230	38.502674	38.571429
5sponge_4161.fa.dist	31.137725	34.530938	40.419162	34.530938	38.779343	33.886719	49.671362	34.667969	40.722656	39.887640
5sponge_4429.fa.dist	29.523810	38.571429	39.523810	34.761905	39.908257	55.909091	47.727273	36.238532	45.291480	31.651376
5sponge_5342.fa.dist	43.835616	45.890411	50.000000	43.750000	44.217687	49.659864	50.000000	43.046358	43.750000	38.194444
5sponge_4942.fa.dist	49.103943	56.856187	65.412186	57.942238	53.177258	68.561873	72.575251	54.706927	68.772563	59.205776
5sponge_5222.fa.dist	31.606218	48.320413	62.216625	42.424242	37.305699	50.904393	52.971576	37.564767	46.717172	31.606218
5sponge_4840.fa.dist	32.653061	40.217391	42.424242	31.122449	38.586957	35.353535	45.108696	28.282828	28.282828	32.142857
5sponge_4577.fa.dist	35.944700	39.534884	59.722222	43.720930	46.046512	42.325581	56.744186	44.444444	45.581395	46.976744
5sponge_4396.fa.dist	69.931440	69.688109	74.027237	68.585366	69.441724	70.175439	68.878049	69.049951	66.536585	68.266405
5sponge_5266.fa.dist	51.979346	50.511247	56.896552	49.053356	57.668712	52.147239	56.441718	56.724138	54.137931	54.697987
5sponge_4884.fa.dist	49.781659	56.017505	62.882096	53.448276	54.048140	57.986871	57.330416	50.218341	59.170306	51.310044
5sponge_4401.fa.dist	45.099905	43.940715	57.067603	42.869641	47.098002	50.482880	45.494313	49.191246	45.215101	44.053283
5sponge_4883.fa.dist	61.881188	60.272277	70.173267	60.519802	62.152358	63.515152	59.900990	62.181818	63.118812	60.024752
5sponge_3773.fa.dist	47.838617	49.855908	57.060519	46.974063	55.492958	51.549296	57.183099	50.134771	46.703297	50.549451
5sponge_4680.fa.dist	52.488688	50.564334	57.589286	49.318182	56.561086	53.498871	54.545455	55.429864	50.681818	52.045455
5sponge_4973.fa.dist	25.000000	31.279621	35.585586	33.971292	46.527778	36.966825	63.636364	31.944444	35.406699	43.055556
5sponge_5018.fa.dist	86.861314	67.153285	90.145985	87.226277	81.956522	83.478261	85.000000	79.234973	81.420765	77.757685
5sponge_4152.fa.dist	42.578125	36.328125	68.127490	47.395833	29.769392	37.184595	51.408451	43.293493	48.207171	42.723005
5sponge_4761.fa.dist	41.666667	48.812095	59.737418	50.000000	49.892009	56.236324	59.179266	50.547046	55.579869	52.884615
5sponge_5448.fa.dist	48.564593	55.263158	71.304348	53.110048	53.900709	65.507246	65.402844	60.289855	62.318841	52.132701
5sponge_4374.fa.dist	69.187675	66.216216	73.333333	65.135135	71.148459	69.824561	70.698925	71.228070	71.228070	70.868347
5sponge_4239.fa.dist	48.741007	53.725490	56.834532	49.100719	58.823529	56.470588	56.862745	48.508634	44.740973	45.625000
5sponge_4105.fa.dist	29.472141	46.334311	41.966427	43.695015	32.959327	50.359712	64.235624	36.690647	52.517986	33.564494
5sponge_5501.fa.dist	40.272374	46.600000	60.263158	51.585624	44.400000	53.421053	55.813953	51.315789	53.947368	49.048626
5sponge_4941.fa.dist	56.100796	58.645533	67.278287	60.209424	60.662824	60.703364	72.766571	57.339450	62.996942	62.732095
5sponge_4076.fa.dist	32.800000	31.733333	43.200000	31.200000	36.069987	38.720000	49.933244	36.480000	37.440000	39.838493
5sponge_4391.fa.dist	41.314554	48.591549	54.634146	39.201878	45.969499	50.975610	48.604651	44.146341	43.658537	41.162791
5sponge_4786.fa.dist	53.846154	62.087912	68.508287	63.186813	57.608696	64.640884	68.085106	56.906077	68.508287	61.956522
5sponge_3781.fa.dist	32.915361	34.615385	42.788462	35.096154	38.557994	40.000000	41.647059	36.363636	39.861751	36.050157
5sponge_3899.fa.dist	37.229437	49.576271	52.118644	45.338983	39.826840	55.416667	50.409836	43.290043	50.000000	38.961039
5sponge_5012.fa.dist	45.828699	51.993620	57.174638	48.053393	53.429027	57.894737	54.704944	46.106557	46.481665	42.213115
5sponge_4017.fa.dist	69.135802	57.142857	68.181818	63.855422	62.962963	58.333333	56.626506	65.432099	65.060241	60.493827
5sponge_4892.fa.dist	41.130604	42.495127	50.294695	38.206628	39.841689	49.901768	36.608863	45.186640	40.667976	36.994220
5sponge_4747.fa.dist	33.838384	37.234043	38.383838	33.333333	55.319149	44.680851	59.042553	36.683417	41.025641	51.794872
5sponge_5085.fa.dist	44.495413	47.297297	56.164384	46.067416	50.458716	50.913242	58.108108	50.000000	47.031963	52.752294
5sponge_5041.fa.dist	45.543346	47.236181	55.491329	46.781116	53.140704	51.059730	55.937053	48.554913	49.325626	53.648069
5sponge_4097.fa.dist	38.961039	40.000000	44.642857	43.283582	38.222222	41.964286	46.268657	45.982143	49.253731	48.258706
5sponge_4143.fa.dist	41.821248	40.809444	54.567023	41.568297	46.623794	53.736655	49.115756	53.143535	50.889680	43.338684
5sponge_5437.fa.dist	86.586414	90.043103	92.667238	89.408233	87.284483	91.422414	91.724138	87.360275	90.780446	87.360275
5sponge_3844.fa.dist	45.631068	47.321429	54.807692	52.727273	45.631068	50.961538	50.909091	56.310680	64.423077	51.456311
5sponge_4922.fa.dist	48.844884	52.475248	60.535117	56.105611	47.194719	62.207358	56.765677	51.839465	62.876254	50.326797
5sponge_4675.fa.dist	38.731219	44.908180	53.088481	34.891486	40.619902	42.131148	43.556281	36.885246	37.049180	34.902597
5sponge_4846.fa.dist	33.155080	43.340858	51.693002	37.500000	40.641711	47.427293	45.000000	35.294118	41.590909	38.235294
5sponge_5379.fa.dist	35.652174	47.826087	57.391304	33.913043	34.645669	46.153846	33.070866	33.333333	36.752137	22.758621
5sponge_4376.fa.dist	46.206897	43.448276	64.646465	37.800687	38.620690	40.344828	39.655172	50.344828	37.800687	31.724138
5sponge_4681.fa.dist	44.021739	47.200000	65.737052	46.400000	44.836957	57.768924	49.470899	57.370518	56.972112	47.282609
5sponge_4251.fa.dist	49.572650	51.724138	68.695652	46.551724	49.137931	50.434783	58.620690	39.130435	48.695652	46.551724
5sponge_4558.fa.dist	48.043297	47.520289	52.933151	48.252344	58.972047	42.155525	60.685302	42.974079	41.336971	56.095482
5sponge_4202.fa.dist	51.719198	49.713467	59.598854	54.871060	43.212951	48.158254	48.677249	49.931787	55.388813	47.619048
5sponge_5184.fa.dist	34.728033	40.000000	41.422594	32.845188	41.004184	40.563380	42.535211	40.167364	25.408618	45.188285
5sponge_4631.fa.dist	38.842975	41.129032	58.400000	48.387097	43.801653	42.741935	50.000000	47.107438	49.193548	49.586777
5sponge_4250.fa.dist	32.311978	41.061453	47.214076	37.325905	36.312849	44.574780	40.502793	36.363636	35.483871	33.875339
5sponge_4896.fa.dist	67.590028	66.390041	75.000000	67.222222	70.539419	69.709544	70.954357	73.333333	68.611111	69.722222
5sponge_4538.fa.dist	75.166667	78.000000	84.166667	76.961603	80.333333	80.199667	80.467446	77.500000	78.297162	78.130217
5sponge_4698.fa.dist	56.875000	57.591623	59.190031	54.769231	64.397906	64.921466	68.586387	63.750000	61.059190	63.437500
5sponge_5248.fa.dist	74.193548	82.006920	75.659824	69.047619	75.778547	76.124567	67.474048	72.625698	66.964286	67.559524
5sponge_5189.fa.dist	37.387387	43.665158	55.882353	45.270270	43.212670	43.212670	62.443439	38.461538	49.547511	44.000000
5sponge_4920.fa.dist	46.046512	45.045045	60.888889	40.639269	53.488372	52.252252	59.360731	49.767442	52.054795	52.093023
5sponge_5368.fa.dist	53.895275	55.810983	62.707535	56.832695	62.264151	57.590966	70.728643	54.842767	58.291457	63.522013
5sponge_4028.fa.dist	31.520000	29.111531	43.555556	34.316770	35.349716	37.429112	33.081285	34.240000	36.335404	34.080000
5sponge_3777.fa.dist	64.390244	73.658537	73.658537	66.829268	67.317073	79.512195	77.560976	68.292683	70.243902	65.365854
5sponge_4553.fa.dist	49.295775	55.769231	50.704225	50.352113	53.846154	61.538462	60.769231	51.760563	50.000000	48.591549
5sponge_4022.fa.dist	37.894737	40.000000	35.789474	29.473684	42.857143	35.714286	42.857143	30.392157	31.372549	30.841121
5sponge_4767.fa.dist	67.754319	73.022312	77.868852	66.412214	72.210953	71.106557	71.399594	72.131148	68.647541	66.218810
5sponge_5164.fa.dist	32.450331	47.184170	49.756098	47.336377	39.403974	57.235772	56.788321	34.105960	53.333333	40.894040
5sponge_4788.fa.dist	58.755187	65.539452	64.613181	64.133987	60.082988	68.911175	73.366013	53.581662	67.335244	58.838174
5sponge_4437.fa.dist	35.308642	37.777778	42.716049	34.074074	33.266129	37.500000	37.945493	35.416667	39.622642	35.010482
5sponge_5394.fa.dist	57.702350	59.268930	68.146214	61.618799	52.592593	54.726368	61.042184	58.457711	62.686567	56.575682
5sponge_5229.fa.dist	59.696459	64.674868	67.959528	56.829680	62.917399	64.499121	64.323374	58.872305	58.250825	55.389718
5sponge_4465.fa.dist	58.031838	55.247813	61.206897	57.597685	60.787172	50.574713	65.160350	48.850575	50.287356	60.492041
5sponge_4333.fa.dist	32.089552	33.593750	40.458015	31.782946	42.187500	46.875000	43.750000	41.984733	40.310078	33.333333
5sponge_3907.fa.dist	34.991974	36.115570	43.017657	34.028892	34.952978	38.087774	41.065831	34.011628	38.226744	21.298701
5sponge_4928.fa.dist	35.576923	41.987179	49.038462	47.115385	38.738739	39.939940	47.147147	34.124629	37.685460	40.345821
5sponge_3969.fa.dist	50.925926	55.555556	62.037037	43.518519	51.351351	55.855856	52.252252	46.153846	41.176471	42.735043
5sponge_4507.fa.dist	36.482940	45.669291	49.606299	39.632546	42.067308	50.480769	45.673077	45.939675	48.027842	44.675926
5sponge_4863.fa.dist	52.000000	45.161290	75.968992	48.837209	54.838710	49.193548	59.677419	54.400000	48.888889	56.000000
5sponge_4791.fa.dist	34.563107	40.909091	48.349515	34.174757	41.558442	40.692641	47.835498	37.767584	39.542484	41.339869
5sponge_5331.fa.dist	60.450161	56.338028	68.450704	60.845070	58.199357	59.349593	55.040872	61.093248	61.852861	56.913183
5sponge_5336.fa.dist	48.165138	47.368421	57.847534	41.818182	51.674641	44.976077	50.239234	49.082569	46.363636	51.376147
5sponge_3849.fa.dist	28.252788	35.960591	39.068100	37.634409	36.453202	40.394089	52.709360	31.226766	42.013889	40.520446
5sponge_5037.fa.dist	35.000000	31.460674	48.554913	31.284916	32.022472	35.260116	30.337079	39.884393	38.150289	31.284916
5sponge_5186.fa.dist	32.692308	32.029340	40.384615	39.646465	34.474328	35.696822	35.858586	33.971292	40.909091	36.363636
5sponge_4445.fa.dist	53.960396	43.682310	57.673267	50.495050	44.043321	48.014440	46.931408	53.071253	50.122850	47.836538
5sponge_5044.fa.dist	55.048077	49.038462	59.615385	48.048780	51.421801	52.278177	53.658537	50.359712	52.682927	51.463415
5sponge_4019.fa.dist	46.601942	64.062500	66.153846	54.687500	81.250000	64.062500	68.750000	63.076923	53.125000	64.062500
5sponge_4611.fa.dist	49.194232	54.792197	55.223881	51.060221	53.255426	54.892206	60.651629	51.077944	47.927032	50.710109
5sponge_4775.fa.dist	53.416149	63.354037	66.666667	60.355030	59.627329	73.291925	75.776398	56.521739	65.454545	60.869565
5sponge_4593.fa.dist	47.363872	48.573898	53.955696	50.734659	51.525424	46.202532	47.757475	49.841772	49.841772	52.203390
5sponge_3733.fa.dist	40.310078	44.489796	46.449136	36.293436	41.224490	43.877551	44.489796	43.023256	36.679537	34.108527
5sponge_3766.fa.dist	50.479233	53.354633	51.132686	53.674121	47.692308	53.074434	58.412698	50.809061	52.103560	51.111111
5sponge_3887.fa.dist	34.532374	33.812950	49.640288	29.496403	39.041096	40.714286	37.241379	43.571429	40.000000	33.793103
5sponge_4857.fa.dist	43.349754	44.444444	59.113300	45.685279	41.919192	48.989899	52.284264	41.552511	49.746193	41.116751
5sponge_4672.fa.dist	63.333333	70.000000	73.184358	66.111111	70.000000	78.212291	76.666667	73.743017	72.625698	68.888889
5sponge_4163.fa.dist	62.593284	59.319149	54.748603	54.398709	64.925373	43.016760	58.638298	42.737430	45.391061	60.914179
5sponge_4407.fa.dist	35.671343	55.279503	63.126253	45.661157	38.923395	59.420290	51.345756	36.852590	47.727273	33.884298
5sponge_3857.fa.dist	53.333333	57.816377	65.079365	57.368421	61.042184	62.034739	66.749380	56.084656	59.259259	58.549223
5sponge_4369.fa.dist	44.000000	45.850914	58.974359	44.933333	47.238095	47.086247	44.022504	33.333333	45.221445	51.619048
5sponge_4495.fa.dist	38.153310	41.637631	43.137255	41.811847	45.904437	46.078431	50.166113	45.686275	43.333333	44.197952
5sponge_3776.fa.dist	63.374486	54.285714	67.479675	70.281124	53.086420	54.285714	54.285714	66.666667	65.447154	65.432099
5sponge_5094.fa.dist	35.775862	40.948276	58.189655	44.827586	34.519573	47.810219	50.362319	35.766423	43.795620	33.695652
5sponge_5024.fa.dist	32.753623	34.700315	45.507246	31.594203	41.640379	40.378549	44.164038	42.613636	40.909091	39.058172
5sponge_4349.fa.dist	72.674419	76.162791	86.046512	77.906977	79.651163	80.232558	87.209302	77.906977	81.395349	81.976744
5sponge_4112.fa.dist	82.474227	84.962406	85.340314	82.474227	87.969925	90.225564	88.721805	82.722513	83.769634	81.958763
5sponge_3851.fa.dist	65.994624	70.320856	68.866328	68.449198	69.086022	67.343486	72.058824	62.605753	64.636210	67.204301
5sponge_4580.fa.dist	39.410480	45.868644	55.804047	48.703495	43.231441	47.390841	63.472379	40.938865	49.830891	44.757610
5sponge_4462.fa.dist	34.054054	37.567568	40.675676	30.135135	34.610918	39.721254	38.211382	34.817352	35.119726	32.305936
5sponge_5397.fa.dist	35.321101	38.532110	41.284404	35.779817	46.460177	38.565022	41.592920	39.013453	31.390135	37.662338
5sponge_5167.fa.dist	53.046595	50.657895	60.573477	54.121864	47.368421	53.947368	45.394737	56.630824	55.197133	51.219512
5sponge_3917.fa.dist	65.878378	52.941176	71.864407	65.656566	50.000000	51.470588	52.450980	62.033898	65.762712	64.864865
5sponge_4093.fa.dist	42.929293	45.177665	59.624413	41.293532	47.208122	47.715736	64.974619	41.919192	45.273632	45.959596
5sponge_5456.fa.dist	66.831683	73.762376	80.198020	74.257426	64.761905	70.952381	72.857143	62.500000	72.857143	67.142857
5sponge_4470.fa.dist	48.731884	52.230483	59.611650	48.811700	53.159851	60.776699	54.460967	56.893204	53.786408	49.360146
5sponge_4166.fa.dist	50.929368	50.000000	58.041958	50.000000	53.903346	53.146853	50.364964	48.251748	47.552448	50.557621
5sponge_4276.fa.dist	44.265233	48.168498	53.405018	46.953405	46.886447	52.014652	56.410256	48.500882	49.378330	44.937833
5sponge_5494.fa.dist	47.404844	54.468803	58.458961	49.078727	49.134948	55.311973	50.084317	51.903114	48.414023	43.598616
5sponge_4305.fa.dist	27.383863	36.818182	44.444444	35.154394	41.075795	33.409091	41.330166	39.608802	44.893112	41.809291
5sponge_4035.fa.dist	48.543689	55.882353	80.000000	55.663430	58.088235	47.567568	69.485294	47.027027	61.081081	54.658385
5sponge_5339.fa.dist	42.705570	43.582888	51.193634	44.772118	54.278075	50.000000	61.394102	45.244216	54.423592	53.887399
5sponge_5218.fa.dist	51.534733	53.445636	66.151468	52.904239	54.765751	57.959815	60.282575	54.119548	54.788069	55.411955
5sponge_5050.fa.dist	50.585938	83.070866	82.778865	80.746562	51.968504	82.874016	84.448819	51.467710	80.157171	49.508841
5sponge_4842.fa.dist	36.170213	41.052632	52.105263	37.543860	48.355899	37.685950	51.386623	39.845261	38.347107	49.323017
5sponge_5071.fa.dist	42.073779	47.024952	58.225324	41.176471	49.328215	51.055662	57.197697	43.948413	41.269841	42.507346
5sponge_4525.fa.dist	42.857143	41.854637	31.858407	42.606516	57.500000	50.884956	63.000000	44.247788	46.902655	57.037037
5sponge_5149.fa.dist	72.916667	79.141104	81.818182	71.969697	70.961145	79.345603	72.801636	73.033708	72.846442	68.089054
5sponge_5204.fa.dist	54.439252	47.164179	61.682243	54.047619	54.029851	48.059701	52.537313	54.778555	50.714286	56.904762
5sponge_4024.fa.dist	57.665904	60.556845	59.276018	58.997722	62.645012	58.932715	65.661253	57.437071	59.225513	61.784897
5sponge_4598.fa.dist	43.257443	48.448276	53.926702	45.674740	50.788091	53.228621	56.401384	50.087566	54.101222	53.064799
5sponge_5425.fa.dist	36.111111	42.352941	54.629630	54.629630	32.941176	60.000000	48.235294	40.540541	62.037037	34.259259
5sponge_4001.fa.dist	46.212121	50.194553	49.242424	46.153846	47.859922	44.357977	50.583658	45.220588	45.384615	45.769231
5sponge_5095.fa.dist	37.710438	47.200000	59.288538	29.640719	41.200000	50.400000	38.000000	39.130435	36.363636	29.292929
5sponge_4711.fa.dist	39.562624	51.323829	53.346856	49.105368	41.344196	55.600815	59.266802	45.030426	55.983773	40.186916
5sponge_5325.fa.dist	42.558327	54.465004	64.199517	49.879324	44.784053	56.611296	57.475083	45.995423	59.038902	46.255003
5sponge_5500.fa.dist	36.431227	33.333333	43.122677	36.988848	39.659367	40.632603	38.929440	36.805556	38.593482	39.930556
5sponge_3934.fa.dist	53.299492	49.238579	75.384615	50.761421	56.852792	49.743590	61.421320	50.769231	52.307692	54.314721
5sponge_5418.fa.dist	56.070288	59.424920	70.398010	53.035144	58.977901	66.417910	60.027663	59.203980	58.955224	51.037344
5sponge_4850.fa.dist	37.640449	57.738095	66.666667	41.573034	37.500000	57.738095	47.023810	36.257310	42.105263	35.393258
5sponge_5025.fa.dist	63.888889	59.633028	71.028037	50.000000	58.796296	61.682243	57.534247	65.420561	49.532710	50.462963
5sponge_4986.fa.dist	59.433962	69.411765	79.629630	72.093023	77.647059	64.814815	78.823529	72.222222	64.814815	70.930233
5sponge_4905.fa.dist	71.084337	79.289941	79.259259	73.652695	78.915663	85.185185	80.838323	73.333333	80.000000	72.891566
5sponge_4792.fa.dist	33.417296	34.902764	36.641221	40.722082	38.792221	36.183206	45.342886	28.091603	34.045802	33.789330
5sponge_5340.fa.dist	54.521964	53.626943	56.168831	54.830287	61.658031	50.000000	65.013055	50.000000	52.272727	59.530026
5sponge_4182.fa.dist	61.085973	63.800905	61.711712	64.414414	64.253394	61.538462	69.683258	58.823529	57.657658	70.135747
5sponge_3753.fa.dist	30.769231	36.842105	49.253731	39.852399	34.210526	37.719298	44.736842	30.769231	46.766169	29.864253
5sponge_4898.fa.dist	44.117647	41.618497	41.618497	42.207792	47.794118	41.477273	42.857143	41.911765	44.155844	47.058824
5sponge_5003.fa.dist	42.367601	47.975078	50.155763	40.952381	38.297872	44.072948	46.349206	39.349112	42.539683	41.269841
5sponge_5242.fa.dist	36.475410	36.680328	39.344262	37.953092	40.816327	43.061224	47.761194	40.117417	42.430704	42.430704
5sponge_5258.fa.dist	58.604651	50.697674	62.325581	65.581395	44.680851	55.648536	51.652893	50.212766	65.271967	56.595745
5sponge_4211.fa.dist	66.023739	65.430267	72.106825	66.913947	68.094535	67.603550	68.491124	69.526627	69.970414	69.230769
5sponge_5383.fa.dist	38.931298	35.322196	45.823389	39.608802	40.712468	36.830835	46.943765	39.949109	40.097800	42.239186
5sponge_5077.fa.dist	31.944444	31.250000	47.916667	37.121212	30.519481	37.012987	53.787879	39.743590	42.424242	39.393939
5sponge_5410.fa.dist	56.395349	57.558140	70.149254	52.906977	61.363636	58.805970	53.693182	58.208955	52.835821	52.840909
5sponge_4678.fa.dist	56.250000	62.043796	70.802920	62.539349	57.236842	66.562825	71.668416	59.429825	67.785939	59.429825
5sponge_4139.fa.dist	37.322835	34.000000	47.086614	40.787402	46.500000	43.833333	50.333333	40.571429	45.827233	41.581259
5sponge_4299.fa.dist	34.890966	43.613707	50.155763	42.056075	40.266667	50.531915	54.787234	41.600000	50.000000	42.933333
5sponge_4095.fa.dist	39.967105	42.914331	56.030702	43.394716	47.039474	50.657895	50.633914	50.109649	49.671053	37.171053
5sponge_4706.fa.dist	57.710652	54.002714	62.415197	49.389417	57.392687	55.121294	53.342246	59.459459	49.730458	55.166932
5sponge_5304.fa.dist	49.629630	51.111111	51.851852	50.370370	53.676471	60.294118	51.470588	52.173913	50.724638	44.594595
5sponge_4013.fa.dist	38.178295	36.852207	47.222222	30.322581	35.077519	36.852207	39.569892	35.658915	29.892473	30.967742
5sponge_5214.fa.dist	42.723005	48.128342	46.846847	40.186916	48.663102	50.267380	49.197861	47.887324	45.327103	44.600939
5sponge_4064.fa.dist	47.193878	38.860104	49.009901	42.574257	43.005181	41.191710	45.854922	49.489796	46.454768	47.704082
5sponge_5311.fa.dist	35.828877	43.850267	44.919786	45.901639	39.572193	43.315508	43.715847	37.037037	41.530055	43.169399
5sponge_4114.fa.dist	39.184953	48.484848	49.068323	47.151899	48.484848	57.070707	61.616162	41.379310	49.050633	47.151899
5sponge_5245.fa.dist	40.862944	43.141593	43.141593	42.699115	42.385787	33.280255	39.177102	38.324873	38.461538	44.162437
5sponge_4339.fa.dist	45.552147	50.460123	58.128834	48.159509	46.341463	46.793003	46.935725	45.579268	46.935725	45.274390
5sponge_4328.fa.dist	32.065217	38.993711	46.715328	38.797814	35.849057	41.605839	42.767296	32.846715	50.364964	34.426230
5sponge_4613.fa.dist	46.330275	46.009390	57.798165	52.238806	51.173709	53.990610	55.721393	47.533632	51.243781	48.756219
5sponge_5380.fa.dist	62.696629	58.682635	68.862275	56.287425	62.247191	60.714286	60.116732	62.471910	58.134921	64.044944
5sponge_5508.fa.dist	32.967033	36.263736	42.857143	34.065934	46.621622	46.621622	47.916667	36.423841	44.444444	44.444444
5sponge_4654.fa.dist	36.621622	40.135135	50.919378	38.918919	41.743725	44.978784	48.612946	39.886846	44.271570	38.692810
5sponge_4800.fa.dist	40.566038	43.396226	49.056604	48.113208	48.130841	40.072202	40.960452	42.523364	40.794224	44.392523
5sponge_4389.fa.dist	66.666667	67.721519	73.584906	66.666667	66.000000	67.088608	68.987342	70.000000	65.408805	69.333333
5sponge_4449.fa.dist	32.530120	53.448276	37.083333	39.819005	52.586207	46.551724	55.172414	36.666667	39.366516	43.891403
5sponge_4659.fa.dist	35.445205	37.996546	39.726027	36.986301	43.696028	40.759931	49.050086	38.525963	45.299145	40.000000
5sponge_5404.fa.dist	37.345679	35.493827	48.297214	38.888889	40.923077	35.294118	43.076923	35.603715	38.080495	42.461538
5sponge_4077.fa.dist	47.000000	54.798762	57.373272	52.218034	55.687500	64.458525	55.789474	50.460829	53.398618	35.531250
5sponge_5033.fa.dist	46.192893	61.111111	62.176166	49.489796	54.629630	66.666667	62.962963	53.886010	54.922280	48.469388
5sponge_4124.fa.dist	36.442516	58.563536	79.017857	37.022901	45.580110	69.642857	57.734807	52.678571	67.410714	35.791757
5sponge_4685.fa.dist	51.070336	57.926829	64.150943	57.621951	56.880734	63.522013	44.761905	54.402516	63.836478	54.128440
5sponge_3829.fa.dist	58.484848	68.787879	75.757576	69.090909	58.858859	72.372372	80.480480	57.396450	71.556886	58.383234
5sponge_4651.fa.dist	42.971888	42.040816	57.024793	42.436975	53.877551	48.347107	48.739496	44.214876	44.117647	51.680672
5sponge_4880.fa.dist	42.631579	44.864865	46.907216	40.217391	42.162162	40.000000	40.760870	44.736842	40.760870	41.847826
5sponge_4360.fa.dist	41.666667	50.194553	52.536232	45.312500	38.888889	49.027237	45.312500	39.285714	44.531250	38.888889
5sponge_4822.fa.dist	37.048666	43.224700	44.113030	39.560440	38.593482	45.797599	45.969125	34.756996	37.849779	33.195021
5sponge_4619.fa.dist	38.015803	37.088388	49.393414	41.356877	33.011414	40.051238	43.587361	38.893766	44.144981	41.914498
5sponge_4806.fa.dist	70.247934	70.491803	71.311475	67.226891	73.553719	68.548387	67.226891	71.900826	67.226891	68.067227
5sponge_4104.fa.dist	34.579439	37.799043	48.130841	36.842105	38.755981	40.191388	50.526316	39.069767	37.368421	39.473684
5sponge_4870.fa.dist	58.374384	60.344828	66.009852	60.591133	68.172485	67.131474	59.712230	67.351129	62.350598	63.449692
5sponge_4405.fa.dist	57.000000	55.882353	61.764706	65.686275	55.000000	51.960784	57.843137	51.000000	62.745098	55.000000
5sponge_5395.fa.dist	50.606395	52.841596	53.553299	51.157663	58.645707	57.868020	60.217654	54.187817	52.918782	55.882353
5sponge_4155.fa.dist	28.735632	33.073930	29.770992	35.714286	29.885057	36.641221	38.095238	10.687023	35.877863	31.609195
5sponge_5468.fa.dist	55.506608	58.715596	68.421053	56.331878	54.587156	55.963303	61.926606	54.185022	61.403509	55.506608
5sponge_4425.fa.dist	60.341151	81.510417	75.588865	70.410367	75.260417	78.645833	84.635417	61.670236	68.898488	64.794816
5sponge_4020.fa.dist	33.148405	36.338419	41.470180	38.696255	35.066667	36.315087	42.165605	36.048064	39.118825	37.466667
5sponge_4742.fa.dist	45.547445	47.058824	50.072993	44.233577	50.678733	49.472097	50.377074	47.142857	47.428571	47.428571
5sponge_4612.fa.dist	64.077670	66.666667	68.686869	65.686275	73.529412	72.727273	74.509804	73.737374	74.747475	73.529412
5sponge_4916.fa.dist	36.753731	43.613139	49.420849	41.240876	44.776119	50.000000	50.176056	40.926641	44.594595	41.977612
5sponge_5367.fa.dist	55.698529	60.773481	67.990654	61.313869	63.167587	64.953271	65.930018	62.383178	68.925234	62.683824
5sponge_5458.fa.dist	64.173228	68.235294	63.671875	66.274510	67.322835	64.705882	68.627451	61.023622	60.784314	66.535433
5sponge_4461.fa.dist	52.803738	60.747664	68.691589	53.271028	58.604651	58.604651	61.860465	56.221198	57.142857	54.504505
5sponge_3838.fa.dist	49.579832	58.479532	57.079646	50.420168	57.309942	61.403509	66.666667	53.982301	56.194690	54.393305
5sponge_4494.fa.dist	55.303030	46.408840	62.869198	57.196970	49.171271	46.961326	52.486188	61.181435	62.025316	56.159420
5sponge_5505.fa.dist	30.896226	31.228070	42.165899	35.460993	25.263158	33.684211	38.947368	34.905660	39.952719	38.297872
5sponge_4963.fa.dist	34.955752	44.162437	40.425532	39.867841	46.446701	51.489362	56.598985	38.297872	50.212766	40.707965
5sponge_3937.fa.dist	44.460432	50.790514	52.964960	49.460916	48.221344	51.581028	53.952569	50.215827	51.336898	49.928058
5sponge_5070.fa.dist	54.267650	56.691254	61.327713	55.216017	57.660455	55.920398	56.680585	56.004141	56.680585	53.966597
5sponge_4216.fa.dist	39.678284	46.533128	55.384615	47.072419	41.689008	46.239316	56.870229	35.388740	48.376068	44.638070
5sponge_3981.fa.dist	36.406995	42.172524	51.033386	40.327869	44.888179	46.805112	42.131148	38.827258	43.770492	39.508197
5sponge_5300.fa.dist	43.991416	52.058824	57.939914	42.918455	55.294118	53.235294	57.647059	45.415778	47.761194	43.215031
5sponge_4991.fa.dist	35.313002	48.583878	42.533937	44.042232	43.355120	42.701525	55.773420	49.919743	48.941799	58.426966
5sponge_5423.fa.dist	35.016835	37.447405	44.191919	45.300593	35.063114	44.880785	57.924264	39.632107	53.513971	39.119390
5sponge_5231.fa.dist	48.929664	50.819672	62.578616	47.949527	49.508197	56.065574	55.737705	52.201258	53.312303	55.205047
5sponge_5156.fa.dist	64.617486	70.136986	79.107143	66.939891	67.260274	77.500000	71.095890	72.142857	73.392857	65.395095
5sponge_5324.fa.dist	44.615385	60.465116	65.384615	58.461538	49.612403	68.992248	75.968992	46.564885	62.595420	52.272727
5sponge_5484.fa.dist	50.621118	54.448399	58.620690	47.826087	51.957295	54.789272	53.736655	53.639847	49.425287	41.428571
5sponge_4652.fa.dist	30.855019	39.682540	51.652893	40.772532	41.269841	42.328042	40.211640	38.429752	42.060086	38.626609
5sponge_4448.fa.dist	46.823956	49.364791	53.357532	49.727768	42.957746	42.394366	53.943662	37.992832	38.271605	40.501792
5sponge_4907.fa.dist	51.181102	59.907834	74.770642	64.000000	63.133641	59.447005	74.193548	55.504587	66.055046	64.888889
5sponge_4756.fa.dist	37.254902	42.888889	39.202658	40.393013	46.888889	48.000000	51.555556	39.202658	42.192691	39.956332
5sponge_4314.fa.dist	61.064426	61.904762	58.516484	57.575758	57.422969	59.103641	63.585434	57.983193	58.402204	58.823529
5sponge_5271.fa.dist	37.368421	42.187500	49.479167	40.625000	38.947368	40.500000	44.723618	39.473684	39.195980	35.789474
5sponge_5452.fa.dist	36.062378	37.621832	57.115010	45.419103	38.130841	37.072243	50.470810	39.923954	47.908745	36.911488
5sponge_4219.fa.dist	50.000000	45.197740	55.214724	48.466258	46.327684	50.282486	48.587571	51.257862	49.279539	52.515723
5sponge_4021.fa.dist	48.494983	39.915966	52.521008	43.487395	44.481605	40.442656	40.442656	48.829431	41.538462	47.826087
5sponge_4187.fa.dist	36.029412	41.911765	42.401961	45.343137	36.008677	40.603248	41.123596	38.747100	42.923434	39.325843
5sponge_4499.fa.dist	43.434343	37.593985	43.918919	29.508197	36.363636	33.834586	33.834586	36.363636	32.432432	40.404040
5sponge_5102.fa.dist	42.857143	44.897959	48.299320	44.557823	38.766520	46.177370	43.187067	42.201835	43.730887	37.413395
5sponge_4650.fa.dist	41.875000	47.651007	45.664740	47.619048	48.993289	55.033557	56.462585	50.625000	50.340136	48.299320
5sponge_5163.fa.dist	63.057325	67.295597	71.698113	62.893082	65.605096	65.151515	65.420561	66.242038	67.601246	64.331210
5sponge_4765.fa.dist	56.923077	63.636364	66.393443	60.317460	63.076923	65.573770	73.015873	59.836066	62.295082	60.317460
5sponge_4364.fa.dist	54.802260	62.285714	67.231638	59.322034	70.285714	65.142857	78.285714	57.062147	60.112360	65.536723
5sponge_4970.fa.dist	38.548753	36.981567	45.494994	38.969765	41.820276	42.396313	48.617512	41.836735	42.441209	41.836735
5sponge_5497.fa.dist	38.016529	40.772532	44.214876	42.148760	41.201717	42.918455	46.781116	39.534884	41.085271	37.931034
5sponge_3769.fa.dist	44.015444	48.262548	51.737452	44.140625	45.247148	55.725191	51.953125	49.236641	48.437500	41.406250
5sponge_5332.fa.dist	44.313725	39.795918	55.200000	48.431373	42.448980	40.000000	47.755102	47.800000	50.000000	45.053004
5sponge_4103.fa.dist	34.800000	28.037383	48.046875	40.573770	40.654206	28.037383	43.457944	39.600000	41.393443	47.131148
5sponge_4599.fa.dist	42.538976	47.963801	53.950339	48.552339	51.583710	58.823529	57.466063	50.338600	56.884876	51.219512
5sponge_5301.fa.dist	52.187500	50.000000	57.812500	50.312500	55.828221	49.689441	55.657492	49.689441	53.105590	57.055215
5sponge_5343.fa.dist	28.778468	33.910035	32.919255	28.778468	40.484429	37.370242	44.982699	30.769231	34.412955	35.218978
5sponge_4957.fa.dist	31.780822	35.714286	46.132597	34.806630	34.340659	37.569061	47.513812	33.977901	37.569061	36.464088
5sponge_3888.fa.dist	27.891156	44.827586	41.836735	30.927835	37.931034	48.275862	49.425287	28.571429	40.893471	31.958763
5sponge_5312.fa.dist	58.750000	62.240664	58.562368	62.970711	61.250000	51.797040	65.899582	47.780127	51.585624	58.577406
5sponge_4736.fa.dist	49.545455	53.181818	60.000000	49.090909	51.131222	49.549550	54.054054	50.678733	46.640316	50.678733
5sponge_5234.fa.dist	33.532934	45.121951	44.512195	40.476190	39.024390	43.902439	46.951220	35.975610	41.463415	40.718563
5sponge_4107.fa.dist	56.944444	56.645570	63.422819	63.475177	60.069444	58.389262	62.056738	54.861111	68.439716	62.411348
5sponge_5364.fa.dist	41.371158	44.685990	64.832536	41.362530	44.685990	46.376812	47.201946	40.191388	43.309002	43.552311
5sponge_5290.fa.dist	74.213836	73.207547	79.119497	75.126263	74.129353	75.905119	76.262626	76.654182	77.398990	74.873737
5sponge_3730.fa.dist	30.161943	39.271255	43.768116	42.510121	40.797546	55.362319	58.588957	43.478261	55.652174	37.536657
5sponge_3814.fa.dist	36.428571	37.857143	50.000000	40.287770	48.251748	45.714286	61.151079	40.714286	44.604317	46.043165
5sponge_4208.fa.dist	57.863850	58.160920	66.551724	59.096176	59.507042	64.064294	63.267671	59.859155	63.035921	56.690141
5sponge_5265.fa.dist	33.831991	38.204833	37.601078	43.268124	37.712344	47.035040	63.759909	41.778976	48.113208	44.135189
5sponge_5354.fa.dist	50.381679	46.866485	64.112903	49.618321	54.580153	54.435484	56.130790	50.806452	51.612903	50.000000
5sponge_4551.fa.dist	39.869281	41.631799	41.806723	42.794760	48.801743	49.369748	52.838428	47.712418	46.288210	45.633188
5sponge_4799.fa.dist	77.692308	79.580153	81.297710	79.389313	80.000000	79.433962	81.474480	77.500000	79.962193	81.730769
5sponge_4460.fa.dist	54.166667	55.000000	50.833333	44.166667	51.181102	60.465116	52.800000	62.204724	50.400000	48.800000
5sponge_5363.fa.dist	37.906137	43.561974	42.788462	37.906137	50.397276	43.429487	52.625298	41.666667	40.224359	45.465394
5sponge_4025.fa.dist	36.082474	29.545455	56.701031	37.113402	43.181818	39.772727	62.500000	35.000000	48.000000	43.137255
5sponge_4355.fa.dist	77.734375	76.833977	82.945736	78.210117	77.343750	77.906977	79.377432	82.812500	77.431907	75.781250
5sponge_4616.fa.dist	60.305344	69.465649	72.307692	67.938931	68.181818	70.000000	75.757576	68.461538	70.000000	64.661654
5sponge_4347.fa.dist	32.867133	39.510490	56.756757	38.297872	31.596091	45.173745	46.099291	38.223938	45.559846	39.007092
